fir_multichannel.vcd
$date
	Sat Jan 31 16:50:16 2026
$end
$version
	Icarus Verilog
$end
$timescale
	1ps
$end
$scope module tb_fir_multichannel_axis $end
$var wire 32 ! sample_count [31:0] $end
$var wire 1 " s_axis_tready $end
$var wire 4 # overflow_flag [3:0] $end
$var wire 1 $ m_axis_tvalid $end
$var wire 1 % m_axis_tlast $end
$var wire 2 & m_axis_tid [1:0] $end
$var wire 16 ' m_axis_tdata [15:0] $end
$var wire 1 ( filter_busy $end
$var parameter 32 ) COEFF_WIDTH $end
$var parameter 32 * DATA_WIDTH $end
$var parameter 32 + N_CHANNELS $end
$var parameter 32 , N_TAPS $end
$var parameter 32 - TID_WIDTH $end
$var reg 1 . aclk $end
$var reg 1 / aresetn $end
$var reg 1 0 bypass_mode $end
$var reg 16 1 ch0_last [15:0] $end
$var reg 16 2 ch1_last [15:0] $end
$var reg 16 3 ch2_last [15:0] $end
$var reg 16 4 ch3_last [15:0] $end
$var reg 4 5 coeff_wr_addr [3:0] $end
$var reg 16 6 coeff_wr_data [15:0] $end
$var reg 1 7 coeff_wr_en $end
$var reg 1 8 m_axis_tready $end
$var reg 16 9 s_axis_tdata [15:0] $end
$var reg 2 : s_axis_tid [1:0] $end
$var reg 1 ; s_axis_tlast $end
$var reg 1 < s_axis_tvalid $end
$var integer 32 = ch [31:0] $end
$var integer 32 > ch0_count [31:0] $end
$var integer 32 ? ch1_count [31:0] $end
$var integer 32 @ ch2_count [31:0] $end
$var integer 32 A ch3_count [31:0] $end
$var integer 32 B i [31:0] $end
$var integer 32 C test_num [31:0] $end
$scope module dut $end
$var wire 37 D accumulator [36:0] $end
$var wire 1 . aclk $end
$var wire 1 / aresetn $end
$var wire 1 0 bypass_mode $end
$var wire 4 E coeff_wr_addr [3:0] $end
$var wire 16 F coeff_wr_data [15:0] $end
$var wire 1 7 coeff_wr_en $end
$var wire 1 ( filter_busy $end
$var wire 1 G input_transfer $end
$var wire 1 8 m_axis_tready $end
$var wire 1 H output_transfer $end
$var wire 4 I overflow_flag [3:0] $end
$var wire 16 J s_axis_tdata [15:0] $end
$var wire 2 K s_axis_tid [1:0] $end
$var wire 1 ; s_axis_tlast $end
$var wire 1 < s_axis_tvalid $end
$var wire 23 L scaled [22:0] $end
$var wire 1 " s_axis_tready $end
$var wire 1 M output_valid_internal $end
$var parameter 34 N ACC_WIDTH $end
$var parameter 32 O COEFF_ADDR_WIDTH $end
$var parameter 32 P COEFF_WIDTH $end
$var parameter 32 Q DATA_WIDTH $end
$var parameter 32 R HALF_N $end
$var parameter 32 S LATENCY $end
$var parameter 47 T MAX_NEG $end
$var parameter 48 U MAX_POS $end
$var parameter 32 V NUM_STAGES $end
$var parameter 32 W N_CHANNELS $end
$var parameter 32 X N_TAPS $end
$var parameter 36 Y SCALED_WIDTH $end
$var parameter 33 Z SCALE_SHIFT $end
$var parameter 5 [ SHIFT_0 $end
$var parameter 5 \ SHIFT_1 $end
$var parameter 5 ] SHIFT_10 $end
$var parameter 5 ^ SHIFT_13 $end
$var parameter 5 _ SHIFT_14 $end
$var parameter 5 ` SHIFT_15 $end
$var parameter 5 a SHIFT_2 $end
$var parameter 5 b SHIFT_3 $end
$var parameter 5 c SHIFT_4 $end
$var parameter 5 d SHIFT_5 $end
$var parameter 5 e SHIFT_6 $end
$var parameter 5 f SHIFT_7 $end
$var parameter 5 g SHIFT_8 $end
$var parameter 5 h SHIFT_9 $end
$var parameter 32 i TID_WIDTH $end
$var parameter 1 j USE_MULT_11 $end
$var parameter 1 k USE_MULT_12 $end
$var reg 16 l bypass_data [15:0] $end
$var reg 2 m bypass_tid [1:0] $end
$var reg 1 n bypass_tlast $end
$var reg 2 o current_tid [1:0] $end
$var reg 1 p current_tlast $end
$var reg 16 q m_axis_tdata [15:0] $end
$var reg 2 r m_axis_tid [1:0] $end
$var reg 1 % m_axis_tlast $end
$var reg 1 $ m_axis_tvalid $end
$var reg 4 s overflow_per_channel [3:0] $end
$var reg 1 " s_ready_reg $end
$var reg 32 t sample_count [31:0] $end
$var reg 11 u valid_pipe [10:0] $end
$var reg 16 v y_filtered [15:0] $end
$var integer 32 w ch [31:0] $end
$var integer 32 x i [31:0] $end
$scope begin stage0[0] $end
$var parameter 2 y idx $end
$upscope $end
$scope begin stage0[1] $end
$var parameter 2 z idx $end
$upscope $end
$scope begin stage0[2] $end
$var parameter 3 { idx $end
$upscope $end
$scope begin stage0[3] $end
$var parameter 3 | idx $end
$upscope $end
$scope begin stage0[4] $end
$var parameter 4 } idx $end
$upscope $end
$scope begin stage0[5] $end
$var parameter 4 ~ idx $end
$upscope $end
$scope begin stage0[6] $end
$var parameter 4 !" idx $end
$upscope $end
$scope begin stage0[7] $end
$var parameter 4 "" idx $end
$upscope $end
$scope begin stage0[8] $end
$var parameter 5 #" idx $end
$upscope $end
$scope begin stage0[9] $end
$var parameter 5 $" idx $end
$upscope $end
$scope begin stage0[10] $end
$var parameter 5 %" idx $end
$upscope $end
$scope begin stage0[11] $end
$var parameter 5 &" idx $end
$upscope $end
$scope begin stage0[12] $end
$var parameter 5 '" idx $end
$upscope $end
$scope begin stage0[13] $end
$var parameter 5 (" idx $end
$upscope $end
$scope begin stage0[14] $end
$var parameter 5 )" idx $end
$upscope $end
$scope begin stage0[15] $end
$var parameter 5 *" idx $end
$upscope $end
$scope begin stages[1] $end
$var parameter 32 +" STAGE_SIZE $end
$var parameter 2 ," stage $end
$scope begin adders[0] $end
$var parameter 2 -" idx $end
$upscope $end
$scope begin adders[1] $end
$var parameter 2 ." idx $end
$upscope $end
$scope begin adders[2] $end
$var parameter 3 /" idx $end
$upscope $end
$scope begin adders[3] $end
$var parameter 3 0" idx $end
$upscope $end
$scope begin adders[4] $end
$var parameter 4 1" idx $end
$upscope $end
$scope begin adders[5] $end
$var parameter 4 2" idx $end
$upscope $end
$scope begin adders[6] $end
$var parameter 4 3" idx $end
$upscope $end
$scope begin adders[7] $end
$var parameter 4 4" idx $end
$upscope $end
$upscope $end
$scope begin stages[2] $end
$var parameter 32 5" STAGE_SIZE $end
$var parameter 3 6" stage $end
$scope begin adders[0] $end
$var parameter 2 7" idx $end
$upscope $end
$scope begin adders[1] $end
$var parameter 2 8" idx $end
$upscope $end
$scope begin adders[2] $end
$var parameter 3 9" idx $end
$upscope $end
$scope begin adders[3] $end
$var parameter 3 :" idx $end
$upscope $end
$upscope $end
$scope begin stages[3] $end
$var parameter 32 ;" STAGE_SIZE $end
$var parameter 3 <" stage $end
$scope begin adders[0] $end
$var parameter 2 =" idx $end
$upscope $end
$scope begin adders[1] $end
$var parameter 2 >" idx $end
$upscope $end
$upscope $end
$scope begin stages[4] $end
$var parameter 32 ?" STAGE_SIZE $end
$var parameter 4 @" stage $end
$scope begin adders[0] $end
$var parameter 2 A" idx $end
$upscope $end
$upscope $end
$upscope $end
$upscope $end
$enddefinitions $end
$comment Show the parameter values. $end
$dumpall
b0 A"
b100 @"
b1 ?"
b1 >"
b0 ="
b11 <"
b10 ;"
b11 :"
b10 9"
b1 8"
b0 7"
b10 6"
b100 5"
b111 4"
b110 3"
b101 2"
b100 1"
b11 0"
b10 /"
b1 ."
b0 -"
b1 ,"
b1000 +"
b1111 *"
b1110 )"
b1101 ("
b1100 '"
b1011 &"
b1010 %"
b1001 $"
b1000 #"
b111 ""
b110 !"
b101 ~
b100 }
b11 |
b10 {
b1 z
b0 y
1k
1j
b10 i
b1101 h
b1100 g
b1011 f
b1010 e
b1001 d
b1000 c
b111 b
b110 a
b1100 `
b1101 _
b1110 ^
b1110 ]
b101 \
b100 [
b1111 Z
b10111 Y
b100000 X
b100 W
b100 V
b111111111111111 U
b11111111111111111111111111111111000000000000000 T
b1011 S
b10000 R
b10000 Q
b10000 P
b100 O
b100101 N
b10 -
b100000 ,
b100 +
b10000 *
b10000 )
$end
#0
$dumpvars
bx x
bx w
bx v
bx u
bx t
bx s
bx r
bx q
xp
bx o
xn
bx m
bx l
xM
bx L
b0 K
b0 J
bx I
xH
0G
b0 F
b0 E
bx D
b0 C
bx B
b0 A
b0 @
b0 ?
b0 >
bx =
0<
0;
b0 :
b0 9
18
07
b0 6
b0 5
bx 4
bx 3
bx 2
bx 1
00
0/
0.
0(
bx '
bx &
x%
x$
bx #
x"
bx !
$end
#5000
b0 L
0M
1"
0H
b0 D
0p
b0 o
b0 #
b0 I
b0 s
b0 v
0n
b0 m
b0 l
b0 u
0%
b0 &
b0 r
b0 '
b0 q
0$
b0 !
b0 t
b100 w
b100000 x
1.
#10000
0.
#15000
b1011 x
b100 w
1.
#20000
0.
1/
#25000
b1011 x
1.
#30000
0.
b0 B
b1 C
#35000
1G
b1011 x
b1 B
b100000000000000 9
b100000000000000 J
1<
1.
#40000
0.
#45000
b100000000000000 l
b1 u
b1 !
b1 t
b10 B
b0 9
b0 J
b100000 x
1.
#50000
0.
#55000
b10 !
b10 t
b11 u
b0 l
b1011 x
b11 B
1.
#60000
0.
#65000
b111 u
b11 !
b11 t
b100 B
b100000 x
1.
#70000
0.
#75000
b100 !
b100 t
b1111 u
b1011 x
b101 B
1.
#80000
0.
#85000
b11111 u
b101 !
b101 t
b110 B
b100000 x
1.
#90000
0.
#95000
b110 !
b110 t
b111111 u
b1011 x
b111 B
1.
#100000
0.
#105000
b1111111 u
b111 !
b111 t
b1000 B
b100000 x
1.
#110000
0.
#115000
b1000 L
b1000 !
b1000 t
b11111111 u
b1000000000000000000 D
b1011 x
b1001 B
1.
#120000
0.
#125000
b10000 L
b10000000000000000000 D
b1000 v
b111111111 u
b1001 !
b1001 t
b1010 B
b100000 x
1.
#130000
0.
#135000
b100000 L
b1010 !
b1010 t
b1000 '
b1000 q
b1111111111 u
b10000 v
b100000000000000000000 D
b1011 x
b1011 B
1.
#140000
0.
#145000
b1000000 L
1M
b1000000000000000000000 D
b100000 v
b11111111111 u
b10000 '
b10000 q
b1011 !
b1011 t
b1100 B
b100000 x
1.
#150000
0.
#155000
b10000000 L
1H
b1100 !
b1100 t
b100000 '
b100000 q
1$
b1000000 v
b10000000000000000000000 D
b1011 x
b1101 B
1.
#160000
0.
#165000
b100000000 L
b100000000000000000000000 D
b10000000 v
b1000000 '
b1000000 q
b1101 !
b1101 t
b100000 1
b1 >
b1110 B
b100000 x
1.
#170000
0.
#175000
b1000000000 L
b1000000 1
b10 >
b1110 !
b1110 t
b10000000 '
b10000000 q
b100000000 v
b1000000000000000000000000 D
b1011 x
b1111 B
1.
#180000
0.
#185000
b10000000000 L
b10000000000000000000000000 D
b1000000000 v
b100000000 '
b100000000 q
b1111 !
b1111 t
b10000000 1
b11 >
b10000 B
b100000 x
1.
#190000
0.
#195000
b100000000000 L
b100000000 1
b100 >
b10000 !
b10000 t
b1000000000 '
b1000000000 q
b10000000000 v
b100000000000000000000000000 D
b1011 x
b10001 B
1.
#200000
0.
#205000
b1000000000000 L
b1000000000000000000000000000 D
b100000000000 v
b10000000000 '
b10000000000 q
b10001 !
b10001 t
b1000000000 1
b101 >
b10010 B
b100000 x
1.
#210000
0.
#215000
b10000000000000 L
b10000000000 1
b110 >
b10010 !
b10010 t
b100000000000 '
b100000000000 q
b1000000000000 v
b10000000000000000000000000000 D
b1011 x
b10011 B
1.
#220000
0.
#225000
b100000000000000 L
b11111111111111100000000000000 D
b10000000000000 v
b1000000000000 '
b1000000000000 q
b10011 !
b10011 t
b100000000000 1
b111 >
0G
0<
b10100 B
0;
b100000 x
1.
#230000
0.
#235000
b1000000000000 1
b1000 >
b10000000000000 '
b10000000000000 q
b11111111110 u
b1011 x
1.
#240000
0.
#245000
b11111111100 u
b10000000000000 1
b1001 >
b1011 x
1.
#250000
0.
#255000
b1010 >
b11111111000 u
b1011 x
1.
#260000
0.
#265000
b11111110000 u
b1011 >
b1011 x
1.
#270000
0.
#275000
b1100 >
b11111100000 u
b1011 x
1.
#280000
0.
#285000
b11111000000 u
b1101 >
b1011 x
1.
#290000
0.
#295000
b1110 >
b11110000000 u
b1011 x
1.
#300000
0.
#305000
b11100000000 u
b1111 >
b1011 x
1.
#310000
0.
#315000
b10000 >
b11000000000 u
b1011 x
1.
#320000
0.
#325000
b10000000000 u
b10001 >
b1011 x
1.
#330000
0.
#335000
0M
b10010 >
b0 u
b1011 x
1.
#340000
0.
#345000
0H
0$
b10011 >
b1011 x
1.
#350000
0.
#355000
b1011 x
1.
#360000
0.
#365000
b1011 x
1.
#370000
0.
#375000
b1011 x
1.
#380000
0.
#385000
b1011 x
1.
#390000
0.
#395000
b1011 x
1.
#400000
0.
#405000
b1011 x
1.
#410000
0.
#415000
b1011 x
1.
#420000
0.
#425000
b1011 x
1.
#430000
0.
#435000
b1011 x
1.
#440000
0.
#445000
b1011 x
1.
#450000
0.
#455000
b1011 x
1.
#460000
0.
#465000
b1011 x
1.
#470000
0.
#475000
b1011 x
1.
#480000
0.
#485000
b1011 x
1.
#490000
0.
#495000
b1011 x
1.
#500000
0.
#505000
b1011 x
1.
#510000
0.
#515000
b1011 x
1.
#520000
0.
#525000
b1011 x
1.
#530000
0.
#535000
b1011 x
1.
#540000
0.
#545000
b1011 x
1.
#550000
0.
#555000
b1011 x
1.
#560000
0.
#565000
b1011 x
1.
#570000
0.
#575000
b1011 x
1.
#580000
0.
#585000
b1011 x
1.
#590000
0.
#595000
b1011 x
1.
#600000
0.
#605000
b1011 x
1.
#610000
0.
#615000
b1011 x
1.
#620000
0.
#625000
b1011 x
1.
#630000
0.
#635000
b1011 x
1.
#640000
0.
#645000
b1011 x
1.
#650000
0.
#655000
b1011 x
1.
#660000
0.
#665000
b1011 x
1.
#670000
0.
#675000
b1011 x
1.
#680000
0.
#685000
b1011 x
1.
#690000
0.
#695000
b1011 x
1.
#700000
0.
#705000
b1011 x
1.
#710000
0.
#715000
b1011 x
1.
#720000
0.
#725000
b0 =
b10 C
b1011 x
1.
#730000
0.
#735000
1G
b1011 x
b1 =
b1111101000 9
b1111101000 J
1<
1.
#740000
0.
#745000
b100000000000000 v
b1111101000 l
b1 u
b10100 !
b10100 t
b10 =
b1 :
b1 K
b11111010000 9
b11111010000 J
b100000 x
1.
#750000
0.
#755000
b10000000000000 L
b10101 !
b10101 t
b100000000000000 '
b100000000000000 q
b11 u
b10 m
b101110111000 l
b10 o
b10000000000000000000000000000 D
b1011 x
b11 =
b10 :
b10 K
b101110111000 9
b101110111000 J
1.
#760000
0.
#765000
b1000000000000 L
b1000000000000000000000000000 D
b10000000000000 v
b111 u
b10110 !
b10110 t
b0 B
b0 =
b11 :
b11 K
b111110100000 9
b111110100000 J
b100000 x
1.
#770000
0.
#775000
b100000000000 L
b10111 !
b10111 t
b10000000000000 '
b10000000000000 q
b1111 u
b0 m
b0 l
b1000000000000 v
b0 o
b100000000000000000000000000 D
b1011 x
b1 =
b0 :
b0 K
b0 9
b0 J
1.
#780000
0.
#785000
b100000000000 v
b11111 u
b1000000000000 '
b1000000000000 q
b11000 !
b11000 t
b10 =
b1 :
b1 K
b100000 x
1.
#790000
0.
#795000
b1000000000000 L
b11001 !
b11001 t
b100000000000 '
b100000000000 q
b111111 u
b10 m
b10 o
b1000000000000000000000000000 D
b1011 x
b11 =
b10 :
b10 K
1.
#800000
0.
#805000
b10000000000000 L
b10000000000000000000000000000 D
b1000000000000 v
b1111111 u
b11010 !
b11010 t
b1 B
b0 =
b11 :
b11 K
b100000 x
1.
#810000
0.
#815000
b0 L
b11011 !
b11011 t
b1000000000000 '
b1000000000000 q
b11111111 u
b0 m
b10000000000000 v
b0 o
b0 D
b1011 x
b1 =
b0 :
b0 K
1.
#820000
0.
#825000
b1 L
b1011101110000000 D
b0 v
b111111111 u
b10000000000000 '
b10000000000000 q
b11100 !
b11100 t
b10 =
b1 :
b1 K
b100000 x
1.
#830000
0.
#835000
b100000000000000 L
b11101 !
b11101 t
b0 '
b0 q
b1111111111 u
b10 m
b1 v
b10 o
b11111111111111111111010000000 D
b1011 x
b11 =
b10 :
b10 K
1.
#840000
0.
#845000
1M
b100000000000000011110100000000 D
b100000000000000 v
b11111111111 u
b1 '
b1 q
b11110 !
b11110 t
b10 B
b0 =
b11 :
b11 K
b100000 x
1.
#850000
0.
#855000
b100 L
1H
b11111 !
b11111 t
b100000000000000 '
b100000000000000 q
1$
b0 m
b0 o
b100011001010000000 D
b1011 x
b1 =
b0 :
b0 K
1.
#860000
0.
#865000
b1001 L
b1000110010100000000 D
b100 v
b100000 !
b100000 t
b100000000000000 1
b10100 >
b10 =
b1 :
b1 K
b100000 x
1.
#870000
0.
#875000
b10000000000010 L
b10101 >
b100001 !
b100001 t
b10 &
b10 r
b100 '
b100 q
b10 m
b1001 v
b10 o
b10000000000001111101000000000 D
b1011 x
b11 =
b10 :
b10 K
1.
#880000
0.
#885000
b1000000000100 L
b1000000000011111010000000000 D
b10000000000010 v
b1001 '
b1001 q
b100010 !
b100010 t
b100 3
b1 @
b11 B
b0 =
b11 :
b11 K
b100000 x
1.
#890000
0.
#895000
b10010 L
b1001 3
b10 @
b100011 !
b100011 t
b0 &
b0 r
b10000000000010 '
b10000000000010 q
b0 m
b1000000000100 v
b0 o
b10001100101000000000 D
b1011 x
b1 =
b0 :
b0 K
1.
#900000
0.
#905000
b100011 L
b100011001010000000000 D
b10010 v
b1000000000100 '
b1000000000100 q
b100100 !
b100100 t
b10000000000010 1
b10110 >
b10 =
b1 :
b1 K
b100000 x
1.
#910000
0.
#915000
b100000001000 L
b1000000000100 1
b10111 >
b100101 !
b100101 t
b10 &
b10 r
b10010 '
b10010 q
b10 m
b100011 v
b10 o
b100000000111110100000000000 D
b1011 x
b11 =
b10 :
b10 K
1.
#920000
0.
#925000
b10000010000 L
b10000001111101000000000000 D
b100000001000 v
b100011 '
b100011 q
b100110 !
b100110 t
b10010 3
b11 @
b100 B
b0 =
b11 :
b11 K
b100000 x
1.
#930000
0.
#935000
b1000110 L
b100011 3
b100 @
b100111 !
b100111 t
b0 &
b0 r
b100000001000 '
b100000001000 q
b0 m
b10000010000 v
b0 o
b1000110010100000000000 D
b1011 x
b1 =
b0 :
b0 K
1.
#940000
0.
#945000
b10001101 L
b10001100101000000000000 D
b1000110 v
b10000010000 '
b10000010000 q
b101000 !
b101000 t
b100000001000 1
b11000 >
b10 =
b1 :
b1 K
b100000 x
1.
#950000
0.
#955000
b1000011111 L
b10000010000 1
b11001 >
b101001 !
b101001 t
b10 &
b10 r
b1000110 '
b1000110 q
b10 m
b10001101 v
b10 o
b1000011111010000000000000 D
b1011 x
b11 =
b10 :
b10 K
1.
#960000
0.
#965000
b100111111 L
b100111110100000000000000 D
b1000011111 v
b10001101 '
b10001101 q
b101010 !
b101010 t
b1000110 3
b101 @
b101 B
b0 =
b11 :
b11 K
b100000 x
1.
#970000
0.
#975000
b100011001 L
b10001101 3
b110 @
b101011 !
b101011 t
b0 &
b0 r
b1000011111 '
b1000011111 q
b0 m
b100111111 v
b0 o
b100011001010000000000000 D
b1011 x
b1 =
b0 :
b0 K
1.
#980000
0.
#985000
b1000110011 L
b1000110010100000000000000 D
b100011001 v
b100111111 '
b100111111 q
b101100 !
b101100 t
b1000011111 1
b11010 >
b10 =
b1 :
b1 K
b100000 x
1.
#990000
0.
#995000
b11111101 L
b100111111 1
b11011 >
b101101 !
b101101 t
b10 &
b10 r
b100011001 '
b100011001 q
b10 m
b1000110011 v
b10 o
b11111101000000000000000 D
b1011 x
b11 =
b10 :
b10 K
1.
#1000000
0.
#1005000
b100111010 L
b100111010000000000000000 D
b11111101 v
b1000110011 '
b1000110011 q
b101110 !
b101110 t
b100011001 3
b111 @
b110 B
b0 =
b11 :
b11 K
b100000 x
1.
#1010000
0.
#1015000
b10001100101 L
b1000110011 3
b1000 @
b101111 !
b101111 t
b0 &
b0 r
b11111101 '
b11111101 q
b0 m
b100111010 v
b0 o
b10001100101000000000000000 D
b1011 x
b1 =
b0 :
b0 K
1.
#1020000
0.
#1025000
b100011001010 L
b100011001010000000000000000 D
b10001100101 v
b100111010 '
b100111010 q
b110000 !
b110000 t
b11111101 1
b11100 >
b10 =
b1 :
b1 K
b100000 x
1.
#1030000
0.
#1035000
b1000010100 L
b100111010 1
b11101 >
b110001 !
b110001 t
b10 &
b10 r
b10001100101 '
b10001100101 q
b10 m
b100011001010 v
b10 o
b1000010100000000000000000 D
b1011 x
b11 =
b10 :
b10 K
1.
#1040000
0.
#1045000
b1111111000 L
b1111110111111110000011000 D
b1000010100 v
b100011001010 '
b100011001010 q
b110010 !
b110010 t
b10001100101 3
b1001 @
b111 B
b0 =
b11 :
b11 K
b100000 x
1.
#1050000
0.
#1055000
b1000110010100 L
b100011001010 3
b1010 @
b110011 !
b110011 t
b0 &
b0 r
b1000010100 '
b1000010100 q
b0 m
b1111111000 v
b0 o
b1000110010011111010001001000 D
b1011 x
b1 =
b0 :
b0 K
1.
#1060000
0.
#1065000
b1011101110000 L
b1011101101111110100010010000 D
b1000110010100 v
b1111111000 '
b1111111000 q
b110100 !
b110100 t
b1000010100 1
b11110 >
b10 =
b1 :
b1 K
b100000 x
1.
#1070000
0.
#1075000
b1111110000 L
b1111111000 1
b11111 >
b110101 !
b110101 t
b10 &
b10 r
b1000110010100 '
b1000110010100 q
b10 m
b1011101110000 v
b10 o
b1111101111111110000011000 D
b1011 x
b11 =
b10 :
b10 K
1.
#1080000
0.
#1085000
b111110100 L
b111110100000000000000000 D
b1111110000 v
b1011101110000 '
b1011101110000 q
b110110 !
b110110 t
b1000110010100 3
b1011 @
b1000 B
b0 =
b11 :
b11 K
b100000 x
1.
#1090000
0.
#1095000
b1000110010100 L
b1011101110000 3
b1100 @
b110111 !
b110111 t
b0 &
b0 r
b1111110000 '
b1111110000 q
b0 m
b111110100 v
b0 o
b1000110010011111010001001000 D
b1011 x
b1 =
b0 :
b0 K
1.
#1100000
0.
#1105000
b100011001010 L
b100011001010000000000000000 D
b1000110010100 v
b111110100 '
b111110100 q
b111000 !
b111000 t
b1111110000 1
b100000 >
b10 =
b1 :
b1 K
b100000 x
1.
#1110000
0.
#1115000
b11111010 L
b111110100 1
b100001 >
b111001 !
b111001 t
b10 &
b10 r
b1000110010100 '
b1000110010100 q
b10 m
b100011001010 v
b10 o
b11111010000000000000000 D
b1011 x
b11 =
b10 :
b10 K
1.
#1120000
0.
#1125000
b1111101 L
b1111101000000000000000 D
b11111010 v
b100011001010 '
b100011001010 q
b111010 !
b111010 t
b1000110010100 3
b1101 @
b1001 B
b0 =
b11 :
b11 K
b100000 x
1.
#1130000
0.
#1135000
b10001100101 L
b100011001010 3
b1110 @
b111011 !
b111011 t
b0 &
b0 r
b11111010 '
b11111010 q
b0 m
b1111101 v
b0 o
b10001100101000000000000000 D
b1011 x
b1 =
b0 :
b0 K
1.
#1140000
0.
#1145000
b1011101110 L
b1011101110000000000000000 D
b10001100101 v
b1111101 '
b1111101 q
b111100 !
b111100 t
b11111010 1
b100010 >
b10 =
b1 :
b1 K
b100000 x
1.
#1150000
0.
#1155000
b1111101 L
b1111101 1
b100011 >
b111101 !
b111101 t
b10 &
b10 r
b10001100101 '
b10001100101 q
b10 m
b1011101110 v
b10 o
b1111101000000000000000 D
b1011 x
b11 =
b10 :
b10 K
1.
#1160000
0.
#1165000
b11111010 L
b11111010000000000000000 D
b1111101 v
b1011101110 '
b1011101110 q
b111110 !
b111110 t
b10001100101 3
b1111 @
b1010 B
b0 =
b11 :
b11 K
b100000 x
1.
#1170000
0.
#1175000
b10001100101 L
b1011101110 3
b10000 @
b111111 !
b111111 t
b0 &
b0 r
b1111101 '
b1111101 q
b0 m
b11111010 v
b0 o
b10001100101000000000000000 D
b1011 x
b1 =
b0 :
b0 K
1.
#1180000
0.
#1185000
b100011001010 L
b100011001010000000000000000 D
b10001100101 v
b11111010 '
b11111010 q
b1000000 !
b1000000 t
b100100 >
b10 =
b1 :
b1 K
b100000 x
1.
#1190000
0.
#1195000
b111110100 L
b11111010 1
b100101 >
b1000001 !
b1000001 t
b10 &
b10 r
b10001100101 '
b10001100101 q
b10 m
b100011001010 v
b10 o
b111110100000000000000000 D
b1011 x
b11 =
b10 :
b10 K
1.
#1200000
0.
#1205000
b1111101000 L
b1111100111111110000011000 D
b111110100 v
b100011001010 '
b100011001010 q
b1000010 !
b1000010 t
b10001100101 3
b10001 @
b1011 B
b0 =
b11 :
b11 K
b100000 x
1.
#1210000
0.
#1215000
b1000110010100 L
b100011001010 3
b10010 @
b1000011 !
b1000011 t
b0 &
b0 r
b111110100 '
b111110100 q
b0 m
b1111101000 v
b0 o
b1000110010011111010001001000 D
b1011 x
b1 =
b0 :
b0 K
1.
#1220000
0.
#1225000
b1011101110000 L
b1011101101111110100010010000 D
b1000110010100 v
b1111101000 '
b1111101000 q
b1000100 !
b1000100 t
b111110100 1
b100110 >
b10 =
b1 :
b1 K
b100000 x
1.
#1230000
0.
#1235000
b1111101000 L
b1111101000 1
b100111 >
b1000101 !
b1000101 t
b10 &
b10 r
b1000110010100 '
b1000110010100 q
b10 m
b1011101110000 v
b10 o
b1111100111111110000011000 D
b1011 x
b11 =
b10 :
b10 K
1.
#1240000
0.
#1245000
b111110100 L
b111110100000000000000000 D
b1111101000 v
b1011101110000 '
b1011101110000 q
b1000110 !
b1000110 t
b1000110010100 3
b10011 @
b1100 B
b0 =
b11 :
b11 K
b100000 x
1.
#1250000
0.
#1255000
b1000110010100 L
b1011101110000 3
b10100 @
b1000111 !
b1000111 t
b0 &
b0 r
b1111101000 '
b1111101000 q
b0 m
b111110100 v
b0 o
b1000110010011111010001001000 D
b1011 x
b1 =
b0 :
b0 K
1.
#1260000
0.
#1265000
b100011001010 L
b100011001010000000000000000 D
b1000110010100 v
b111110100 '
b111110100 q
b1001000 !
b1001000 t
b101000 >
b10 =
b1 :
b1 K
b100000 x
1.
#1270000
0.
#1275000
b11111010 L
b111110100 1
b101001 >
b1001001 !
b1001001 t
b10 &
b10 r
b1000110010100 '
b1000110010100 q
b10 m
b100011001010 v
b10 o
b11111010000000000000000 D
b1011 x
b11 =
b10 :
b10 K
1.
#1280000
0.
#1285000
b1111101 L
b1111101000000000000000 D
b11111010 v
b100011001010 '
b100011001010 q
b1001010 !
b1001010 t
b1000110010100 3
b10101 @
b1101 B
b0 =
b11 :
b11 K
b100000 x
1.
#1290000
0.
#1295000
b10001100101 L
b100011001010 3
b10110 @
b1001011 !
b1001011 t
b0 &
b0 r
b11111010 '
b11111010 q
b0 m
b1111101 v
b0 o
b10001100101000000000000000 D
b1011 x
b1 =
b0 :
b0 K
1.
#1300000
0.
#1305000
b1000110011 L
b1000110010100000000000000 D
b10001100101 v
b1111101 '
b1111101 q
b1001100 !
b1001100 t
b11111010 1
b101010 >
b10 =
b1 :
b1 K
b100000 x
1.
#1310000
0.
#1315000
b111111 L
b1111101 1
b101011 >
b1001101 !
b1001101 t
b10 &
b10 r
b10001100101 '
b10001100101 q
b10 m
b1000110011 v
b10 o
b111110100000000000000 D
b1011 x
b11 =
b10 :
b10 K
1.
#1320000
0.
#1325000
b11111 L
b11111010000000000000 D
b111111 v
b1000110011 '
b1000110011 q
b1001110 !
b1001110 t
b10001100101 3
b10111 @
b1110 B
b0 =
b11 :
b11 K
b100000 x
1.
#1330000
0.
#1335000
b100011001 L
b1000110011 3
b11000 @
b1001111 !
b1001111 t
b0 &
b0 r
b111111 '
b111111 q
b0 m
b11111 v
b0 o
b100011001010000000000000 D
b1011 x
b1 =
b0 :
b0 K
1.
#1340000
0.
#1345000
b10001101 L
b10001100101000000000000 D
b100011001 v
b11111 '
b11111 q
b1010000 !
b1010000 t
b111111 1
b101100 >
b10 =
b1 :
b1 K
b100000 x
1.
#1350000
0.
#1355000
b10000 L
b11111 1
b101101 >
b1010001 !
b1010001 t
b10 &
b10 r
b100011001 '
b100011001 q
b10 m
b10001101 v
b10 o
b1111101000000000000 D
b1011 x
b11 =
b10 :
b10 K
1.
#1360000
0.
#1365000
b1000 L
b111110100000000000 D
b10000 v
b10001101 '
b10001101 q
b1010010 !
b1010010 t
b100011001 3
b11001 @
b1111 B
b0 =
b11 :
b11 K
b100000 x
1.
#1370000
0.
#1375000
b1000110 L
b10001101 3
b11010 @
b1010011 !
b1010011 t
b0 &
b0 r
b10000 '
b10000 q
b0 m
b1000 v
b0 o
b1000110010100000000000 D
b1011 x
b1 =
b0 :
b0 K
1.
#1380000
0.
#1385000
b100011 L
b100011001010000000000 D
b1000110 v
b1000 '
b1000 q
b1010100 !
b1010100 t
b10000 1
b101110 >
b10 =
b1 :
b1 K
b100000 x
1.
#1390000
0.
#1395000
b100 L
b1000 1
b101111 >
b1010101 !
b1010101 t
b10 &
b10 r
b1000110 '
b1000110 q
b10 m
b100011 v
b10 o
b11111010000000000 D
b1011 x
b11 =
b10 :
b10 K
1.
#1400000
0.
#1405000
b10 L
b1111101000000000 D
b100 v
b100011 '
b100011 q
b1010110 !
b1010110 t
b1000110 3
b11011 @
b10000 B
b0 =
b11 :
b11 K
b100000 x
1.
#1410000
0.
#1415000
b10010 L
b100011 3
b11100 @
b1010111 !
b1010111 t
b0 &
b0 r
b100 '
b100 q
b0 m
b10 v
b0 o
b10001100101000000000 D
b1011 x
b1 =
b0 :
b0 K
1.
#1420000
0.
#1425000
b1001 L
b1000110010100000000 D
b10010 v
b10 '
b10 q
b1011000 !
b1011000 t
b100 1
b110000 >
b10 =
b1 :
b1 K
b100000 x
1.
#1430000
0.
#1435000
b1 L
b10 1
b110001 >
b1011001 !
b1011001 t
b10 &
b10 r
b10010 '
b10010 q
b10 m
b1001 v
b10 o
b111110100000000 D
b1011 x
b11 =
b10 :
b10 K
1.
#1440000
0.
